{
    "page": 1,
    "per_page": 1,
    "photos": [
        {
            "id": 735911,
            "width": 6016,
            "height": 4016,
            "url": "https://www.pexels.com/photo/photo-of-person-typing-on-computer-keyboard-735911/",
            "photographer": "Soumil Kumar",
            "photographer_url": "https://www.pexels.com/@soumil-kumar-4325",
            "photographer_id": 4325,
            "avg_color": "#293254",
            "src": {
                "original": "https://images.pexels.com/photos/735911/pexels-photo-735911.jpeg",
                "large2x": "https://images.pexels.com/photos/735911/pexels-photo-735911.jpeg?auto=compress&cs=tinysrgb&dpr=2&h=650&w=940",
                "large": "https://images.pexels.com/photos/735911/pexels-photo-735911.jpeg?auto=compress&cs=tinysrgb&h=650&w=940",
                "medium": "https://images.pexels.com/photos/735911/pexels-photo-735911.jpeg?auto=compress&cs=tinysrgb&h=350",
                "small": "https://images.pexels.com/photos/735911/pexels-photo-735911.jpeg?auto=compress&cs=tinysrgb&h=130",
                "portrait": "https://images.pexels.com/photos/735911/pexels-photo-735911.jpeg?auto=compress&cs=tinysrgb&fit=crop&h=1200&w=800",
                "landscape": "https://images.pexels.com/photos/735911/pexels-photo-735911.jpeg?auto=compress&cs=tinysrgb&fit=crop&h=627&w=1200",
                "tiny": "https://images.pexels.com/photos/735911/pexels-photo-735911.jpeg?auto=compress&cs=tinysrgb&dpr=1&fit=crop&h=200&w=280"
            },
            "liked": false,
            "alt": "Photo of Person Typing on Computer Keyboard"
        }
    ],
    "total_results": 233,
    "next_page": "https://api.pexels.com/v1/search/?orientation=landscape&page=2&per_page=1&query=hacker"
}